report
…
All species

Table

## [1] "GROWTH"

## # A tibble: 33 × 4
## # Groups:   species [33]
##    species               batXdbh     lci  lci2bat
##    <chr>                   <dbl>   <dbl>    <dbl>
##  1 Pseudotsuga menziesii -0.0789 -0.117  -0.0378 
##  2 Acer pseudoplatanus   -0.0254 -0.0492 -0.0238 
##  3 Larix decidua         -0.0416 -0.0586 -0.0170 
##  4 Fraxinus excelsior    -0.0257 -0.0387 -0.0130 
##  5 Carpinus betulus      -0.0191 -0.0312 -0.0122 
##  6 Tilia spp.            -0.0147 -0.0267 -0.0119 
##  7 Quercus robur         -0.0194 -0.0262 -0.00683
##  8 Fagus sylvatica       -0.0205 -0.0262 -0.00570
##  9 Picea abies           -0.0279 -0.0326 -0.00478
## 10 Pinus sylvestris      -0.0207 -0.0251 -0.00435
## # ℹ 23 more rows

## # A tibble: 5 × 5
##   type_compet delta_aic delta_aic_rel   mae  rmse
##   <chr>           <dbl>         <dbl> <dbl> <dbl>
## 1 bal             -109.         -0.89  1.44  2.10
## 2 bat             -194.         -1.6   1.42  2.08
## 3 batXdbh         -281.         -2.35  1.41  2.06
## 4 control            0           0     1.48  2.15
## 5 lci             -313.         -2.64  1.41  2.06

## [1] "SURVIVAL"

## # A tibble: 29 × 4
## # Groups:   species [29]
##    species               batXdbh     lci lci2bat
##    <chr>                   <dbl>   <dbl>   <dbl>
##  1 Larix decidua         -0.0340 -0.0654 -0.0315
##  2 Betula pendula        -0.0285 -0.0525 -0.0240
##  3 Quercus robur         -0.0239 -0.0436 -0.0197
##  4 Quercus faginea       -0.0117 -0.0306 -0.0189
##  5 Pseudotsuga menziesii -0.0847 -0.103  -0.0188
##  6 Quercus pyrenaica     -0.0107 -0.0248 -0.0140
##  7 Quercus petraea       -0.0230 -0.0370 -0.0140
##  8 Pinus sylvestris      -0.0233 -0.0369 -0.0136
##  9 Quercus pubescens     -0.0111 -0.0233 -0.0123
## 10 Carpinus betulus      -0.0130 -0.0247 -0.0117
## # ℹ 19 more rows
…
## 
##  inv poly 
##   14   15

Interactions with competition for light and climate

## [1] "GROWTH"

## # A tibble: 33 × 3
##    species             n_sgdd n_aet2pet
##    <chr>                <int>     <int>
##  1 Abies alba             100       100
##  2 Acer campestre          95        95
##  3 Acer pseudoplatanus    100        18
##  4 Alnus glutinosa         24        90
##  5 Betula pendula         100        64
##  6 Betula pubescens       100       100
##  7 Carpinus betulus       100       100
##  8 Castanea sativa        100       100
##  9 Fagus sylvatica         98       100
## 10 Fraxinus excelsior     100        65
## # ℹ 23 more rows

## [1] "sgdd:lci ==> 30/33 species (91%)"

## [1] "aet2pet:lci ==> 30/33 species (91%)"

## [1] "MORTALITY"

## # A tibble: 29 × 3
##    species             n_sgdd n_aet2pet
##    <chr>                <int>     <int>
##  1 Abies alba              96        60
##  2 Acer pseudoplatanus     92        60
##  3 Alnus glutinosa        100        94
##  4 Betula pendula         100       100
##  5 Betula pubescens        90         7
##  6 Carpinus betulus        94        96
##  7 Castanea sativa        100       100
##  8 Fagus sylvatica        100       100
##  9 Fraxinus excelsior      99        14
## 10 Larix decidua           97        54
## # ℹ 19 more rows
…
For appendix (with numbers)

## # A tibble: 33 × 2
##       id species            
##    <int> <chr>              
##  1     1 Abies alba         
##  2     2 Acer campestre     
##  3     3 Acer pseudoplatanus
##  4     4 Alnus glutinosa    
##  5     5 Betula pendula     
##  6     6 Betula pubescens   
##  7     7 Carpinus betulus   
##  8     8 Castanea sativa    
##  9     9 Fagus sylvatica    
## 10    10 Fraxinus excelsior 
## # ℹ 23 more rows
…
